{
  "name": "study-documentation-feature",
  "projectType": "library",
  "sourceRoot": "libs/study-documentation/feature/src",
  "prefix": "itag-berufsbildung",
  "targets": {
    "test": {
      "executor": "@nrwl/jest:jest",
      "outputs": [
        "coverage/libs/study-documentation/feature"
      ],
      "options": {
        "jestConfig": "libs/study-documentation/feature/jest.config.ts",
        "passWithNoTests": true
      }
    },
    "lint": {
      "executor": "@nrwl/linter:eslint",
      "options": {
        "lintFilePatterns": [
          "libs/study-documentation/feature/**/*.ts",
          "libs/study-documentation/feature/**/*.html"
        ]
      }
    }
  },
  "tags": []
}
