{
  "version": 2,
  "projects": {
    "planning-api": "apps/planning/api",
    "planning-data": "libs/planning/data",
    "planning-feature": "libs/planning/feature",
    "portal-api": "apps/portal/api",
    "portal-data": "libs/portal/data",
    "portal-ui": "apps/portal/ui",
    "portal-ui-e2e": "apps/portal/ui-e2e",
    "profile-api": "apps/profile/api",
    "profile-data": "libs/profile/data",
    "profile-feature": "libs/profile/feature",
    "report-api": "apps/report/api",
    "report-data": "libs/report/data",
    "report-feature": "libs/report/feature",
    "shared-data-api": "libs/shared/data-api",
    "shared-data-ui": "libs/shared/data-ui",
    "shared-feature-auth0": "libs/shared/feature-auth0",
    "shared-feature-local-store": "libs/shared/feature-local-store",
    "shared-feature-notification": "libs/shared/feature-notification",
    "shared-feature-web-socket": "libs/shared/feature-web-socket",
    "shared-util": "libs/shared/util",
    "study-documentation-api": "apps/study-documentation/api",
    "study-documentation-data": "libs/study-documentation/data",
    "study-documentation-feature": "libs/study-documentation/feature",
    "time-counter-api": "apps/time-counter/api",
    "time-counter-data": "libs/time-counter/data",
    "time-counter-feature": "libs/time-counter/feature",
    "user-management-api": "apps/user-management/api",
    "user-management-data": "libs/user-management/data",
    "user-management-feature": "libs/user-management/feature"
  }
}
