{
  "name": "portal-ui-e2e",
  "sourceRoot": "apps/portal/ui-e2e/src",
  "projectType": "application",
  "targets": {
    "e2e": {
      "executor": "@nrwl/cypress:cypress",
      "options": {
        "cypressConfig": "apps/portal/ui-e2e/cypress.json",
        "devServerTarget": "portal-ui:serve:development"
      },
      "configurations": {
        "production": {
          "devServerTarget": "portal-ui-e2e:serve:production"
        }
      }
    },
    "lint": {
      "executor": "@nrwl/linter:eslint",
      "outputs": [
        "{options.outputFile}"
      ],
      "options": {
        "lintFilePatterns": [
          "apps/portal/ui-e2e/**/*.{js,ts}"
        ]
      }
    }
  },
  "tags": [],
  "implicitDependencies": [
    "portal-ui"
  ]
}
