{
  "name": "shared-feature-web-socket",
  "$schema": "../../../node_modules/nx/schemas/project-schema.json",
  "projectType": "library",
  "sourceRoot": "libs/shared/feature-web-socket/src",
  "prefix": "itag-berufsbildung",
  "targets": {
    "test": {
      "executor": "@nrwl/jest:jest",
      "outputs": [
        "{workspaceRoot}/coverage/{projectRoot}"
      ],
      "options": {
        "jestConfig": "libs/shared/feature-web-socket/jest.config.ts",
        "passWithNoTests": true
      }
    },
    "lint": {
      "executor": "@nrwl/linter:eslint",
      "options": {
        "lintFilePatterns": [
          "libs/shared/feature-web-socket/**/*.ts",
          "libs/shared/feature-web-socket/**/*.html"
        ]
      }
    }
  },
  "tags": []
}
