{
  "name": "study-documentation-api",
  "sourceRoot": "apps/study-documentation/api/src",
  "projectType": "application",
  "targets": {
    "build": {
      "executor": "@nrwl/node:webpack",
      "outputs": [
        "{options.outputPath}"
      ],
      "options": {
        "outputPath": "dist/apps/study-documentation/api",
        "main": "apps/study-documentation/api/src/main.ts",
        "tsConfig": "apps/study-documentation/api/tsconfig.app.json",
        "tsPlugins": [
          {
            "name": "@nestjs/swagger/plugin",
            "options": {
              "introspectComments": true,
              "classValidatorShim": false,
              "dtoFileNameSuffix": [
                ".dto.ts"
              ]
            }
          }
        ],
        "assets": [
          "apps/study-documentation/api/src/assets",
          "apps/study-documentation/api/src/import-data"
        ]
      },
      "configurations": {
        "production": {
          "optimization": true,
          "extractLicenses": true,
          "inspect": false,
          "fileReplacements": [
            {
              "replace": "apps/study-documentation/api/src/environments/environment.ts",
              "with": "apps/study-documentation/api/src/environments/environment.prod.ts"
            }
          ]
        }
      }
    },
    "serve": {
      "executor": "@nrwl/node:node",
      "options": {
        "buildTarget": "study-documentation-api:build"
      }
    },
    "lint": {
      "executor": "@nrwl/linter:eslint",
      "outputs": [
        "{options.outputFile}"
      ],
      "options": {
        "lintFilePatterns": [
          "apps/study-documentation/api/**/*.ts"
        ]
      }
    },
    "test": {
      "executor": "@nrwl/jest:jest",
      "outputs": [
        "coverage/apps/study-documentation/api"
      ],
      "options": {
        "jestConfig": "apps/study-documentation/api/jest.config.ts",
        "passWithNoTests": true
      }
    }
  },
  "tags": []
}
