{
  "name": "study-documentation-data",
  "$schema": "../../../node_modules/nx/schemas/project-schema.json",
  "sourceRoot": "libs/study-documentation/data/src",
  "projectType": "library",
  "targets": {
    "lint": {
      "executor": "@nrwl/linter:eslint",
      "outputs": [
        "{options.outputFile}"
      ],
      "options": {
        "lintFilePatterns": [
          "libs/study-documentation/data/**/*.ts"
        ]
      }
    },
    "test": {
      "executor": "@nrwl/jest:jest",
      "outputs": [
        "coverage/libs/study-documentation/data"
      ],
      "options": {
        "jestConfig": "libs/study-documentation/data/jest.config.ts",
        "passWithNoTests": true
      }
    }
  },
  "tags": []
}
