{
  "name": "user-management-data",
  "projectType": "library",
  "sourceRoot": "libs/user-management/data/src",
  "prefix": "itag-berufsbildung",
  "targets": {
    "test": {
      "executor": "@nrwl/jest:jest",
      "outputs": [
        "coverage/libs/user-management/data"
      ],
      "options": {
        "jestConfig": "libs/user-management/data/jest.config.ts",
        "passWithNoTests": true
      }
    },
    "lint": {
      "executor": "@nrwl/linter:eslint",
      "options": {
        "lintFilePatterns": [
          "libs/user-management/data/**/*.ts",
          "libs/user-management/data/**/*.html"
        ]
      }
    }
  },
  "tags": []
}
