{
  "name": "portal-ui",
  "projectType": "application",
  "sourceRoot": "apps/portal/ui/src",
  "prefix": "itag-berufsbildung",
  "targets": {
    "build": {
      "executor": "@angular-devkit/build-angular:browser",
      "outputs": [
        "{options.outputPath}"
      ],
      "options": {
        "outputPath": "dist/apps/portal/ui",
        "index": "apps/portal/ui/src/index.html",
        "main": "apps/portal/ui/src/main.ts",
        "polyfills": "apps/portal/ui/src/polyfills.ts",
        "tsConfig": "apps/portal/ui/tsconfig.app.json",
        "inlineStyleLanguage": "scss",
        "assets": [
          "apps/portal/ui/src/favicon.ico",
          "apps/portal/ui/src/assets",
          "apps/portal/ui/src/manifest.webmanifest"
        ],
        "styles": [
          "apps/portal/ui/src/styles.scss"
        ],
        "scripts": [],
        "serviceWorker": true,
        "ngswConfigPath": "apps/portal/ui/ngsw-config.json"
      },
      "configurations": {
        "dev": {
          "optimization": false,
          "outputHashing": "none",
          "sourceMap": true,
          "namedChunks": false,
          "aot": false,
          "extractLicenses": true,
          "vendorChunk": false,
          "buildOptimizer": false
        },
        "int": {
          "optimization": true,
          "outputHashing": "none",
          "sourceMap": false,
          "namedChunks": false,
          "aot": true,
          "extractLicenses": true,
          "vendorChunk": true,
          "buildOptimizer": true,
          "fileReplacements": [
            {
              "replace": "environments/environment.ts",
              "with": "environments/environment.int.ts"
            }
          ]
        },
        "prod": {
          "optimization": true,
          "outputHashing": "none",
          "sourceMap": false,
          "namedChunks": false,
          "aot": true,
          "extractLicenses": true,
          "vendorChunk": true,
          "buildOptimizer": true,
          "budgets": [
            {
              "type": "initial",
              "maximumWarning": "5mb",
              "maximumError": "5.5mb"
            },
            {
              "type": "anyComponentStyle",
              "maximumWarning": "5.75kb",
              "maximumError": "6.5kb"
            }
          ],
          "fileReplacements": [
            {
              "replace": "environments/environment.ts",
              "with": "environments/environment.prod.ts"
            }
          ]
        }
      },
      "defaultConfiguration": "prod"
    },
    "serve": {
      "executor": "@angular-devkit/build-angular:dev-server",
      "configurations": {
        "prod": {
          "browserTarget": "portal-ui:build:prod",
          "port": 4201
        },
        "dev": {
          "browserTarget": "portal-ui:build:dev",
          "port": 4201
        },
        "int": {
          "browserTarget": "portal-ui:build:int",
          "port": 4201
        }
      },
      "defaultConfiguration": "dev",
      "options": {
        "proxyConfig": "apps/portal/ui/proxy.conf.json"
      }
    },
    "extract-i18n": {
      "executor": "@angular-devkit/build-angular:extract-i18n",
      "options": {
        "browserTarget": "portal-ui:build"
      }
    },
    "lint": {
      "executor": "@nrwl/linter:eslint",
      "options": {
        "lintFilePatterns": [
          "apps/portal/ui/**/*.ts",
          "apps/portal/ui/**/*.html"
        ]
      }
    },
    "test": {
      "executor": "@nrwl/jest:jest",
      "outputs": [
        "coverage/apps/portal/ui"
      ],
      "options": {
        "jestConfig": "apps/portal/ui/jest.config.ts",
        "passWithNoTests": true
      }
    }
  },
  "tags": []
}
