{
  "name": "shared-data-ui",
  "projectType": "library",
  "sourceRoot": "libs/shared/data-ui/src",
  "prefix": "itag-berufsbildung",
  "targets": {
    "test": {
      "executor": "@nrwl/jest:jest",
      "outputs": [
        "coverage/libs/shared/data-ui"
      ],
      "options": {
        "jestConfig": "libs/shared/data-ui/jest.config.ts",
        "passWithNoTests": true
      }
    },
    "lint": {
      "executor": "@nrwl/linter:eslint",
      "options": {
        "lintFilePatterns": [
          "libs/shared/data-ui/**/*.ts",
          "libs/shared/data-ui/**/*.html"
        ]
      }
    }
  },
  "tags": []
}
